{
  "_embedded" : {
    "people" : [ {
      "name" : "Homer Simpson",
      "suffix" : null,
      "url" : "https://vignette.wikia.nocookie.net/simpsons/images/b/bd/Homer_Simpson.png/revision/latest/scale-to-width-down/72?cb=20140126234206",
      "_links" : {
        "self" : {
          "href" : "http://localhost/people/1"
        },
        "person" : {
          "href" : "http://localhost/people/1"
        }
      }
    }, {
      "name" : "Marge Simpson",
      "suffix" : null,
      "url" : "https://vignette.wikia.nocookie.net/simpsons/images/4/4d/MargeSimpson.png/revision/latest/scale-to-width-down/78?cb=20180314071936",
      "_links" : {
        "self" : {
          "href" : "http://localhost/people/2"
        },
        "person" : {
          "href" : "http://localhost/people/2"
        }
      }
    }, {
      "name" : "Bart Simpson",
      "suffix" : null,
      "url" : "https://vignette.wikia.nocookie.net/simpsons/images/6/65/Bart_Simpson.png/revision/latest/scale-to-width-down/87?cb=20180319061933",
      "_links" : {
        "self" : {
          "href" : "http://localhost/people/3"
        },
        "person" : {
          "href" : "http://localhost/people/3"
        }
      }
    }, {
      "name" : "Lisa Simpson",
      "suffix" : null,
      "url" : "https://vignette.wikia.nocookie.net/simpsons/images/5/57/Lisa_Simpson2.png/revision/latest/scale-to-width-down/74?cb=20180319000458",
      "_links" : {
        "self" : {
          "href" : "http://localhost/people/4"
        },
        "person" : {
          "href" : "http://localhost/people/4"
        }
      }
    }, {
      "name" : "Maggie Simpson",
      "suffix" : null,
      "url" : "https://vignette.wikia.nocookie.net/simpsons/images/8/89/Maggie.png/revision/latest/scale-to-width-down/87?cb=20090115172358",
      "_links" : {
        "self" : {
          "href" : "http://localhost/people/5"
        },
        "person" : {
          "href" : "http://localhost/people/5"
        }
      }
    }, {
      "name" : "Abraham Simpson II",
      "suffix" : null,
      "url" : "https://vignette.wikia.nocookie.net/simpsons/images/a/a9/Abraham_Simpson.png/revision/latest/scale-to-width-down/75?cb=20151011181838",
      "_links" : {
        "self" : {
          "href" : "http://localhost/people/6"
        },
        "person" : {
          "href" : "http://localhost/people/6"
        }
      }
    }, {
      "name" : "Ned Flanders",
      "suffix" : null,
      "url" : "https://vignette.wikia.nocookie.net/simpsons/images/8/84/Ned_Flanders.png/revision/latest/scale-to-width-down/115?cb=20100513160156",
      "_links" : {
        "self" : {
          "href" : "http://localhost/people/7"
        },
        "person" : {
          "href" : "http://localhost/people/7"
        }
      }
    }, {
      "name" : "Charles Montgomery Burns",
      "suffix" : null,
      "url" : "https://vignette.wikia.nocookie.net/simpsons/images/a/a7/Montgomery_Burns.png/revision/latest/scale-to-width-down/121?cb=20100602062705",
      "_links" : {
        "self" : {
          "href" : "http://localhost/people/8"
        },
        "person" : {
          "href" : "http://localhost/people/8"
        }
      }
    }, {
      "name" : "Krusty the Clown",
      "suffix" : null,
      "url" : "https://vignette.wikia.nocookie.net/simpsons/images/e/e5/Krusty_The_Clown.png/revision/latest/scale-to-width-down/106?cb=20180630040309",
      "_links" : {
        "self" : {
          "href" : "http://localhost/people/9"
        },
        "person" : {
          "href" : "http://localhost/people/9"
        }
      }
    }, {
      "name" : "Moe Szyslak",
      "suffix" : null,
      "url" : "https://vignette.wikia.nocookie.net/simpsons/images/8/80/Moe_Szyslak.png/revision/latest/scale-to-width-down/125?cb=20170101190543",
      "_links" : {
        "self" : {
          "href" : "http://localhost/people/10"
        },
        "person" : {
          "href" : "http://localhost/people/10"
        }
      }
    }, {
      "name" : "Seymour Skinner",
      "suffix" : null,
      "url" : "https://vignette.wikia.nocookie.net/simpsons/images/3/3a/Seymour_Skinner.png/revision/latest/scale-to-width-down/104?cb=20151011181559",
      "_links" : {
        "self" : {
          "href" : "http://localhost/people/11"
        },
        "person" : {
          "href" : "http://localhost/people/11"
        }
      }
    }, {
      "name" : "Milhouse Van Houten",
      "suffix" : null,
      "url" : "https://vignette.wikia.nocookie.net/simpsons/images/1/11/Milhouse_Van_Houten.png/revision/latest/scale-to-width-down/174?cb=20100602035045",
      "_links" : {
        "self" : {
          "href" : "http://localhost/people/12"
        },
        "person" : {
          "href" : "http://localhost/people/12"
        }
      }
    }, {
      "name" : "Edna Krabappel",
      "suffix" : null,
      "url" : "https://vignette.wikia.nocookie.net/simpsons/images/7/76/Edna_Krabappel.png/revision/latest/scale-to-width-down/115?cb=20180723220624",
      "_links" : {
        "self" : {
          "href" : "http://localhost/people/13"
        },
        "person" : {
          "href" : "http://localhost/people/13"
        }
      }
    }, {
      "name" : "Apu Nahasapeemapetilon",
      "suffix" : null,
      "url" : "https://vignette.wikia.nocookie.net/simpsons/images/7/7d/Apu_Nahasapeemapetilon.png/revision/latest/scale-to-width-down/70?cb=20171027210822",
      "_links" : {
        "self" : {
          "href" : "http://localhost/people/14"
        },
        "person" : {
          "href" : "http://localhost/people/14"
        }
      }
    }, {
      "name" : "Eleanor Abernathy",
      "suffix" : null,
      "url" : "https://vignette.wikia.nocookie.net/simpsons/images/b/b5/230px-Eleanor_Abernathy.png/revision/latest/scale-to-width-down/80?cb=20140817113422",
      "_links" : {
        "self" : {
          "href" : "http://localhost/people/15"
        },
        "person" : {
          "href" : "http://localhost/people/15"
        }
      }
    }, {
      "name" : "Akira",
      "suffix" : null,
      "url" : "https://vignette.wikia.nocookie.net/simpsons/images/5/56/Akira.png/revision/latest/scale-to-width-down/68?cb=20141125003621",
      "_links" : {
        "self" : {
          "href" : "http://localhost/people/16"
        },
        "person" : {
          "href" : "http://localhost/people/16"
        }
      }
    }, {
      "name" : "Ms. Albright",
      "suffix" : null,
      "url" : "https://vignette.wikia.nocookie.net/simpsons/images/8/8e/Ms._Albright2.JPG/revision/latest/scale-to-width-down/103?cb=20131017031338",
      "_links" : {
        "self" : {
          "href" : "http://localhost/people/17"
        },
        "person" : {
          "href" : "http://localhost/people/17"
        }
      }
    }, {
      "name" : "Woody Allen",
      "suffix" : null,
      "url" : "https://vignette.wikia.nocookie.net/simpsons/images/b/b9/Woody_Allen.png/revision/latest/scale-to-width-down/121?cb=20141128181439",
      "_links" : {
        "self" : {
          "href" : "http://localhost/people/18"
        },
        "person" : {
          "href" : "http://localhost/people/18"
        }
      }
    }, {
      "name" : "Tattoo Annie",
      "suffix" : null,
      "url" : "https://vignette.wikia.nocookie.net/simpsons/images/a/af/Tattoo.png/revision/latest/scale-to-width-down/117?cb=20130329093024",
      "_links" : {
        "self" : {
          "href" : "http://localhost/people/19"
        },
        "person" : {
          "href" : "http://localhost/people/19"
        }
      }
    }, {
      "name" : "Aristotle Amadopolis",
      "suffix" : null,
      "url" : "https://vignette.wikia.nocookie.net/simpsons/images/4/41/Aristotle_Amadopolis.png/revision/latest/scale-to-width-down/91?cb=20180322134458",
      "_links" : {
        "self" : {
          "href" : "http://localhost/people/20"
        },
        "person" : {
          "href" : "http://localhost/people/20"
        }
      }
    } ]
  },
  "_links" : {
    "first" : {
      "href" : "http://localhost/people/search/findByName?name=&page=0&size=20"
    },
    "self" : {
      "href" : "http://localhost/people/search/findByName?name=&page=0&size=20"
    },
    "next" : {
      "href" : "http://localhost/people/search/findByName?name=&page=1&size=20"
    },
    "last" : {
      "href" : "http://localhost/people/search/findByName?name=&page=40&size=20"
    }
  },
  "page" : {
    "size" : 20,
    "totalElements" : 817,
    "totalPages" : 41,
    "number" : 0
  }
}