{
  "_embedded" : {
    "people" : [ {
      "name" : "Art teacher",
      "suffix" : null,
      "url" : "https://vignette.wikia.nocookie.net/simpsons/images/1/1c/Art_teacher.jpg/revision/latest/scale-to-width-down/103?cb=20140221012250",
      "_links" : {
        "self" : {
          "href" : "http://localhost/people/801"
        },
        "person" : {
          "href" : "http://localhost/people/801"
        }
      }
    }, {
      "name" : "Little Bearded Woman",
      "suffix" : null,
      "url" : "https://vignette.wikia.nocookie.net/simpsons/images/9/92/Little_Woman.png/revision/latest/scale-to-width-down/87?cb=20130126200539",
      "_links" : {
        "self" : {
          "href" : "http://localhost/people/802"
        },
        "person" : {
          "href" : "http://localhost/people/802"
        }
      }
    }, {
      "name" : "Worm-eating boy",
      "suffix" : null,
      "url" : "https://vignette.wikia.nocookie.net/simpsons/images/3/3f/Worm-eating_boy.png/revision/latest/scale-to-width-down/73?cb=20130128201508",
      "_links" : {
        "self" : {
          "href" : "http://localhost/people/803"
        },
        "person" : {
          "href" : "http://localhost/people/803"
        }
      }
    }, {
      "name" : "Kwik-E-Mart President",
      "suffix" : null,
      "url" : "https://vignette.wikia.nocookie.net/simpsons/images/5/57/Kwikemarthead.png/revision/latest/scale-to-width-down/114?cb=20100921200401",
      "_links" : {
        "self" : {
          "href" : "http://localhost/people/804"
        },
        "person" : {
          "href" : "http://localhost/people/804"
        }
      }
    }, {
      "name" : "Kearney's unnamed son",
      "suffix" : null,
      "url" : "https://vignette.wikia.nocookie.net/simpsons/images/9/92/250px-Kearney%27s_unnamed_son.png/revision/latest/scale-to-width-down/114?cb=20130516174855",
      "_links" : {
        "self" : {
          "href" : "http://localhost/people/805"
        },
        "person" : {
          "href" : "http://localhost/people/805"
        }
      }
    }, {
      "name" : "Faceless Man",
      "suffix" : null,
      "url" : "https://vignette.wikia.nocookie.net/simpsons/images/9/91/Faceless_Man.png/revision/latest/scale-to-width-down/114?cb=20100715212822",
      "_links" : {
        "self" : {
          "href" : "http://localhost/people/806"
        },
        "person" : {
          "href" : "http://localhost/people/806"
        }
      }
    }, {
      "name" : "Ice Cream Lady",
      "suffix" : null,
      "url" : "https://vignette.wikia.nocookie.net/simpsons/images/0/08/Mitarbeiterin_im_Phineas_Q._Butterfat.png/revision/latest/scale-to-width-down/114?cb=20130128225347",
      "_links" : {
        "self" : {
          "href" : "http://localhost/people/807"
        },
        "person" : {
          "href" : "http://localhost/people/807"
        }
      }
    }, {
      "name" : "Unnamed girl with red glasses",
      "suffix" : null,
      "url" : "https://vignette.wikia.nocookie.net/simpsons/images/4/42/Unknown_Girl_2.JPG/revision/latest/scale-to-width-down/104?cb=20130216165744",
      "_links" : {
        "self" : {
          "href" : "http://localhost/people/808"
        },
        "person" : {
          "href" : "http://localhost/people/808"
        }
      }
    }, {
      "name" : "Babysitting Lady",
      "suffix" : null,
      "url" : "https://vignette.wikia.nocookie.net/simpsons/images/a/ae/Babysitting_Lady_%28Some_Enchanted_Evening%29.png/revision/latest/scale-to-width-down/114?cb=20130527192045",
      "_links" : {
        "self" : {
          "href" : "http://localhost/people/809"
        },
        "person" : {
          "href" : "http://localhost/people/809"
        }
      }
    }, {
      "name" : "Unnamed Latino Man",
      "suffix" : null,
      "url" : "https://vignette.wikia.nocookie.net/simpsons/images/4/46/Latino_Man.png/revision/latest/scale-to-width-down/75?cb=20111210154221",
      "_links" : {
        "self" : {
          "href" : "http://localhost/people/810"
        },
        "person" : {
          "href" : "http://localhost/people/810"
        }
      }
    }, {
      "name" : "Chicagoan man",
      "suffix" : null,
      "url" : "https://vignette.wikia.nocookie.net/simpsons/images/8/8d/Chicago_man.png/revision/latest/scale-to-width-down/114?cb=20130320162657",
      "_links" : {
        "self" : {
          "href" : "http://localhost/people/811"
        },
        "person" : {
          "href" : "http://localhost/people/811"
        }
      }
    }, {
      "name" : "Female Mail Carrier",
      "suffix" : null,
      "url" : "https://vignette.wikia.nocookie.net/simpsons/images/a/a0/Mail_Carrier.png/revision/latest/scale-to-width-down/101?cb=20130531191652",
      "_links" : {
        "self" : {
          "href" : "http://localhost/people/812"
        },
        "person" : {
          "href" : "http://localhost/people/812"
        }
      }
    }, {
      "name" : "Springfield Nuclear Power Plant employee",
      "suffix" : null,
      "url" : "https://vignette.wikia.nocookie.net/simpsons/images/3/38/Springfield_Nuclear_Power_Plant_employee_%28Blazed_and_Confused%29.png/revision/latest/scale-to-width-down/101?cb=20141118005307",
      "_links" : {
        "self" : {
          "href" : "http://localhost/people/813"
        },
        "person" : {
          "href" : "http://localhost/people/813"
        }
      }
    }, {
      "name" : "Hippie",
      "suffix" : null,
      "url" : "https://vignette.wikia.nocookie.net/simpsons/images/2/21/Oldman14.png/revision/latest/scale-to-width-down/114?cb=20140901155059",
      "_links" : {
        "self" : {
          "href" : "http://localhost/people/814"
        },
        "person" : {
          "href" : "http://localhost/people/814"
        }
      }
    }, {
      "name" : "Sandwich Delivery Guy",
      "suffix" : null,
      "url" : "https://vignette.wikia.nocookie.net/simpsons/images/8/86/My_Sister%2C_My_Sitter_55.JPG/revision/latest/scale-to-width-down/114?cb=20130619015258",
      "_links" : {
        "self" : {
          "href" : "http://localhost/people/815"
        },
        "person" : {
          "href" : "http://localhost/people/815"
        }
      }
    }, {
      "name" : "Springfield Pet Shop owner",
      "suffix" : null,
      "url" : "https://vignette.wikia.nocookie.net/simpsons/images/7/74/Pet_store_man.png/revision/latest/scale-to-width-down/114?cb=20101026121500",
      "_links" : {
        "self" : {
          "href" : "http://localhost/people/816"
        },
        "person" : {
          "href" : "http://localhost/people/816"
        }
      }
    }, {
      "name" : "Mathemagician",
      "suffix" : null,
      "url" : "https://vignette.wikia.nocookie.net/simpsons/images/f/fb/Mathemagician.jpg/revision/latest/scale-to-width-down/114?cb=20130728195645",
      "_links" : {
        "self" : {
          "href" : "http://localhost/people/817"
        },
        "person" : {
          "href" : "http://localhost/people/817"
        }
      }
    } ]
  },
  "_links" : {
    "first" : {
      "href" : "http://localhost/people/search/findByName?name=&page=0&size=20"
    },
    "prev" : {
      "href" : "http://localhost/people/search/findByName?name=&page=39&size=20"
    },
    "self" : {
      "href" : "http://localhost/people/search/findByName?name=&page=40&size=20"
    },
    "last" : {
      "href" : "http://localhost/people/search/findByName?name=&page=40&size=20"
    }
  },
  "page" : {
    "size" : 20,
    "totalElements" : 817,
    "totalPages" : 41,
    "number" : 40
  }
}